<?xml version="1.0" encoding="utf-8"?>
<!-- Generator: Adobe Illustrator 16.0.0, SVG Export Plug-In . SVG Version: 6.00 Build 0)  -->
<!DOCTYPE svg PUBLIC "-//W3C//DTD SVG 1.1//EN" "http://www.w3.org/Graphics/SVG/1.1/DTD/svg11.dtd">
<svg version="1.1" id="Ebene_1" xmlns="http://www.w3.org/2000/svg" xmlns:xlink="http://www.w3.org/1999/xlink" x="0px" y="0px"
	 width="807.5px" height="359.5px" viewBox="0 0 807.5 359.5" enable-background="new 0 0 807.5 359.5" xml:space="preserve">
<rect x="92.479" y="2.75" fill-rule="evenodd" clip-rule="evenodd" fill="#91B6D0" width="22.707" height="261.594"/>
<polygon fill="#7897AD" points="94.238,265.768 0.5,359.5 0.5,94.423 94.238,0.691 "/>
<path fill-rule="evenodd" clip-rule="evenodd" fill="#91B6D0" d="M96.812,0.691h-2.614v265.065h664.33
	c24.295,0,44.062-15.984,44.062-35.642V36.333c0-19.655-19.768-35.642-44.062-35.642H96.812z"/>
<path fill-rule="evenodd" clip-rule="evenodd" fill="#FFFFFF" d="M258.954,100.023c18.26,0,33.052,14.797,33.052,33.055
	c0,18.256-14.792,33.057-33.052,33.057c-18.26,0-33.059-14.801-33.059-33.057C225.896,114.82,240.694,100.023,258.954,100.023z"/>
<path fill="#FFFFFF" d="M289.767,191.569c10.609-5.374,23.999-3.676,32.886,5.208l6.42,6.427
	c-28.866,28.868-71.103,36.212-106.779,22.04c-12.185-4.836-23.604-12.186-33.46-22.04c-16.965-16.963-26.521-38.534-28.634-60.683
	l9.005,0.013c12.826,0,24.171,5.364,28.84,16.285c3.224,7.636,7.937,14.787,14.165,21.007
	C233.207,200.826,264.775,204.699,289.767,191.569z"/>
<path fill="#FFFFFF" d="M160.22,123.647c2.1-22.151,11.648-43.73,28.615-60.688c12.44-12.441,27.361-20.887,43.177-25.332
	c33.407-9.402,70.777-0.956,97.062,25.325l-6.42,6.428c-8.899,8.891-22.277,10.583-32.886,5.213
	c-14.199-7.463-30.516-9.434-45.811-5.902c-10.281,2.395-20.083,7.248-28.468,14.57l-0.523,0.456
	c-0.936,0.84-1.857,1.717-2.754,2.614c-6.228,6.221-10.941,13.384-14.165,21.019l-0.152,0.35
	c-4.854,10.74-16.049,15.941-28.688,15.941L160.22,123.647z"/>
<path fill-rule="evenodd" clip-rule="evenodd" fill="#FFFFFF" d="M418.509,175.056h-5.041l-8.322,43.311h-0.845
	c-0.625-5.804-1.538-16.367-6.708-43.311h-8.05l-7.49,43.311h-0.835c-0.697-5.736-2.381-16.092-7.841-43.311h-5.389l10.361,48.978
	h7.416c5.735-30.647,6.787-43.868,6.787-43.868h1.123l7.417,43.868h7.407L418.509,175.056z"/>
<rect x="425.72" y="175.056" fill-rule="evenodd" clip-rule="evenodd" fill="#FFFFFF" width="5.458" height="48.978"/>
<polygon fill-rule="evenodd" clip-rule="evenodd" fill="#FFFFFF" points="467.636,224.034 467.636,219.7 448.183,219.7 
	448.183,200.802 462.73,200.802 462.73,196.466 448.183,196.466 448.183,179.393 467.348,179.393 467.348,175.056 442.651,175.056 
	442.651,224.034 "/>
<polygon fill-rule="evenodd" clip-rule="evenodd" fill="#FFFFFF" points="509.676,174.639 504.705,174.639 504.92,218.366 
	504.149,218.366 484.834,175.056 476.168,175.056 476.092,224.034 480.852,224.034 480.646,180.234 481.416,180.234 
	500.798,224.034 509.613,224.034 "/>
<path fill-rule="evenodd" clip-rule="evenodd" fill="#FFFFFF" d="M402.488,157.007v-7.141c0,0-4.766,0.845-8.892,0.845
	c-8.394,0-13.706-2.451-13.706-17.77c0-15.257,5.312-17.564,13.706-17.564c3.852,0,8.892,0.84,8.892,0.84v-6.997
	c0,0-5.314-1.475-11.965-1.475c-14.276,0-21.197,8.748-21.197,25.329c0,16.655,6.921,25.332,21.197,25.332
	C397.173,158.406,402.488,157.007,402.488,157.007z"/>
<path fill-rule="evenodd" clip-rule="evenodd" fill="#FFFFFF" d="M449.294,157.563L434.8,108.595H422l-15.119,48.968h10.436
	l2.935-11.266h15.461l3.084,11.266H449.294z M433.963,139.446h-11.468l5.314-22.109h1.049L433.963,139.446z"/>
<polygon fill-rule="evenodd" clip-rule="evenodd" fill="#FFFFFF" points="508.131,157.563 504.485,108.595 489.172,108.595 
	481.401,145.741 480.423,145.741 472.937,108.595 457.126,108.595 453.483,157.563 461.88,157.563 464.327,117.058 464.403,116.217 
	465.386,116.217 474.129,157.563 486.506,157.563 495.464,117.058 495.608,116.217 496.656,116.217 498.608,157.563 "/>
<path fill-rule="evenodd" clip-rule="evenodd" fill="#FFFFFF" d="M548.994,124.684c0-7.7-2.799-16.088-16.232-16.088h-15.875v48.968
	h9.717v-16.441h7C544.447,141.123,548.994,133.074,548.994,124.684z M538.646,124.823c0,7.487-2.248,9.374-6.512,9.374h-5.531
	v-18.82h5.531C536.398,115.377,538.646,117.27,538.646,124.823z"/>
<path fill-rule="evenodd" clip-rule="evenodd" fill="#FFFFFF" d="M587.766,141.961v-33.366h-9.1v33.72
	c0,5.176-0.555,8.535-6.926,8.535c-6.367,0-7.062-3.359-7.062-8.535v-33.72h-9.801v33.366c0,11.473,4.9,16.376,16.793,16.376
	C583.984,158.337,587.766,153.722,587.766,141.961z"/>
<path fill-rule="evenodd" clip-rule="evenodd" fill="#FFFFFF" d="M627.281,142.662c0-7.766-3.844-11.538-11.049-13.645
	c-3.988-1.107-9.445-2.371-9.445-7.206c0-5.662,5.184-6.57,8.334-6.57c5.168,0,9.156,0.771,9.156,0.771v-7.138
	c-2.369-0.498-5.523-1.129-10.771-1.129c-12.527,0-17.006,7.006-17.006,14.769c0,8.954,4.549,11.405,12.037,13.924
	c3.641,1.258,8.328,2.729,8.328,7.556c0,5.246-3.922,7.064-8.467,7.064c-5.527,0-11.691-1.329-11.691-1.329v7.278
	c0,0,5.746,1.399,12.807,1.399C619.797,158.406,627.281,153.092,627.281,142.662z"/>
<polygon fill-rule="evenodd" clip-rule="evenodd" fill="#FFFFFF" points="399.055,49.962 399.055,42.121 371.348,42.121 
	371.348,91.097 381.148,91.097 381.148,71.23 394.094,71.23 394.094,63.534 381.148,63.534 381.148,49.962 "/>
<polygon fill-rule="evenodd" clip-rule="evenodd" fill="#FFFFFF" points="441.465,91.097 441.465,42.121 431.738,42.121 
	431.738,62.062 416.56,62.062 416.56,42.121 406.901,42.121 406.901,91.097 416.56,91.097 416.56,69.759 431.738,69.759 
	431.738,91.097 "/>
<g>
	<path fill="#565961" d="M183.585,326.723c-0.299,1.162-0.802,2.121-1.508,2.913c-0.704,0.779-1.632,1.38-2.784,1.789
		c-1.154,0.409-2.599,0.618-4.338,0.618c-1.844,0-3.362-0.19-4.536-0.601c-1.185-0.4-2.123-0.97-2.828-1.741
		c-0.707-0.751-1.192-1.703-1.467-2.875c-0.272-1.161-0.404-2.475-0.404-3.988v-18.853h4.072v18.91c0,2.189,0.364,3.75,1.096,4.683
		c0.735,0.921,2.051,1.371,3.944,1.371c0.938,0,1.731-0.106,2.385-0.305c0.659-0.21,1.181-0.562,1.582-1.047
		c0.405-0.495,0.698-1.124,0.88-1.893c0.189-0.771,0.281-1.714,0.281-2.847v-18.872h4.074v18.816
		C184.033,324.285,183.885,325.58,183.585,326.723z"/>
	<path fill="#565961" d="M204.622,332.043l-10.772-23.241h-0.566l0.196,23.241h-4.271v-28.057h6.25l10.635,23.117h0.613
		l-0.199-23.117h4.069v28.057H204.622z"/>
	<path fill="#565961" d="M216.442,332.043v-28.057h4.075v28.057H216.442z"/>
	<path fill="#565961" d="M237.474,332.043h-5.731l-7.812-28.057h4.327l6.089,23.889h0.843l6.21-23.889h3.888L237.474,332.043z"/>
	<path fill="#565961" d="M248.741,332.043v-28.057h14.888v3.084H252.81v8.964h7.896v3.103h-7.896v9.812h11.021v3.093H248.741z"/>
	<path fill="#565961" d="M281.781,332.043l-5.421-11.126h-4.034v11.126h-4.029v-28.057h8.193c2.664,0,4.776,0.638,6.336,1.895
		c1.558,1.274,2.338,3.331,2.338,6.157c0,0.799-0.075,1.609-0.219,2.389c-0.148,0.782-0.397,1.505-0.759,2.198
		c-0.358,0.677-0.825,1.295-1.391,1.837c-0.572,0.542-1.299,0.952-2.177,1.277l-0.279,0.503l6.105,11.801H281.781z M280.819,312.237
		c0-1.285-0.158-2.266-0.477-2.988c-0.316-0.731-0.72-1.285-1.212-1.657c-0.485-0.36-1.016-0.608-1.58-0.712
		c-0.57-0.114-1.106-0.162-1.609-0.162h-3.572v11.116h3.411c0.505,0,1.049-0.058,1.649-0.172c0.597-0.123,1.143-0.381,1.644-0.76
		c0.506-0.392,0.924-0.961,1.25-1.685C280.655,314.485,280.819,313.484,280.819,312.237z"/>
	<path fill="#565961" d="M305.464,323.524c0,1.437-0.246,2.693-0.739,3.769c-0.497,1.067-1.18,1.951-2.066,2.638
		c-0.883,0.702-1.925,1.227-3.124,1.586c-1.205,0.354-2.513,0.525-3.932,0.525c-0.772,0-1.521-0.03-2.246-0.087
		c-0.714-0.047-1.38-0.122-1.985-0.2c-0.598-0.075-1.12-0.161-1.56-0.238c-0.441-0.084-0.736-0.141-0.899-0.161v-3.121
		c0.213,0.028,0.558,0.076,1.02,0.161c0.47,0.086,1.001,0.164,1.6,0.249c0.597,0.076,1.226,0.143,1.883,0.19
		c0.656,0.057,1.258,0.076,1.822,0.076c0.828,0,1.593-0.086,2.302-0.256c0.705-0.182,1.323-0.458,1.855-0.838
		c0.542-0.38,0.961-0.867,1.267-1.437c0.308-0.562,0.461-1.248,0.461-2.018c0-0.8-0.126-1.475-0.385-2.007
		c-0.255-0.545-0.609-0.98-1.074-1.352c-0.476-0.371-1.039-0.687-1.705-0.961c-0.667-0.256-1.4-0.542-2.202-0.829
		c-0.771-0.256-1.578-0.542-2.424-0.875c-0.836-0.323-1.594-0.762-2.276-1.313c-0.679-0.543-1.242-1.248-1.684-2.075
		c-0.438-0.837-0.657-1.922-0.657-3.226c0-1.133,0.191-2.17,0.563-3.122c0.375-0.952,0.941-1.779,1.692-2.464
		c0.748-0.685,1.695-1.2,2.831-1.58c1.136-0.38,2.462-0.572,3.99-0.572c1.522,0,2.781,0.078,3.783,0.219
		c1.002,0.144,1.722,0.268,2.147,0.344v3.034c-0.35-0.018-1.006-0.094-1.968-0.209c-0.96-0.123-1.96-0.191-3-0.191
		c-0.621,0-1.253,0.06-1.927,0.135c-0.664,0.094-1.294,0.275-1.882,0.582c-0.589,0.284-1.069,0.694-1.44,1.235
		c-0.378,0.535-0.564,1.247-0.564,2.143c0,0.799,0.186,1.456,0.558,1.979c0.375,0.513,0.854,0.951,1.427,1.304
		c0.57,0.354,1.205,0.637,1.897,0.855c0.693,0.229,1.357,0.449,2.004,0.649c0.824,0.285,1.633,0.627,2.438,0.979
		c0.799,0.362,1.513,0.839,2.138,1.389c0.623,0.571,1.13,1.257,1.502,2.065C305.28,321.345,305.464,322.345,305.464,323.524z"/>
	<path fill="#565961" d="M310.256,332.043v-28.057h4.069v28.057H310.256z"/>
	<path fill="#565961" d="M329.199,307.07v24.973h-4.069V307.07h-7.172v-3.084h18.378v3.084H329.199z"/>
	<path fill="#565961" d="M348.214,321.497v10.546h-4.07v-10.992l-8.381-17.065h4.773l5.742,13.381h0.806
		c0.029-0.104,0.167-0.484,0.424-1.132c0.252-0.646,0.565-1.4,0.947-2.303c0.371-0.923,0.782-1.902,1.238-2.988
		c0.456-1.057,0.884-2.075,1.285-3.036c0.402-0.972,0.753-1.808,1.06-2.504c0.31-0.694,0.514-1.18,0.625-1.418h4.245
		L348.214,321.497z"/>
	<path fill="#565961" d="M392.661,318.033c0,4.54-0.969,8.003-2.909,10.412c-1.938,2.398-4.627,3.598-8.043,3.598
		c-3.431,0-6.111-1.2-8.051-3.598c-1.941-2.409-2.91-5.872-2.91-10.412c0-4.54,0.968-8.022,2.91-10.441
		c1.939-2.397,4.62-3.606,8.051-3.606c3.416,0,6.105,1.209,8.043,3.606C391.692,310.011,392.661,313.493,392.661,318.033z
		 M388.275,318.033c0-1.199-0.062-2.455-0.18-3.72c-0.115-1.304-0.396-2.484-0.837-3.56c-0.44-1.048-1.104-1.932-1.982-2.626
		c-0.883-0.705-2.078-1.057-3.567-1.057c-1.499,0-2.69,0.352-3.569,1.057c-0.884,0.694-1.547,1.579-1.983,2.626
		c-0.443,1.076-0.728,2.255-0.847,3.56c-0.123,1.266-0.177,2.521-0.177,3.72c0,1.198,0.055,2.417,0.177,3.702
		c0.119,1.285,0.403,2.466,0.847,3.513c0.436,1.066,1.099,1.951,1.983,2.663c0.879,0.705,2.07,1.039,3.569,1.039
		c1.489,0,2.684-0.334,3.567-1.039c0.878-0.712,1.542-1.597,1.982-2.663c0.442-1.047,0.722-2.228,0.837-3.513
		C388.212,320.451,388.275,319.231,388.275,318.033z"/>
	<path fill="#565961" d="M401.925,307.07v9.667h8.291v3.104h-8.291v12.202h-4.071v-28.057h15.088v3.084H401.925z"/>
	<path fill="#565961" d="M444.413,332.043l-1.969-7.092h-10.499l-1.962,7.092h-4.206l8.654-28.057h5.887l8.501,28.057H444.413z
		 M437.796,307.793h-0.962l-3.889,14.427h8.654L437.796,307.793z"/>
	<path fill="#565961" d="M468.626,312.761c0,1.189-0.148,2.322-0.437,3.407c-0.295,1.095-0.781,2.084-1.465,2.942
		c-0.679,0.847-1.575,1.513-2.676,2.026c-1.111,0.504-2.469,0.761-4.063,0.761h-3.727v10.146h-4.068v-28.057h7.561
		c1.835,0,3.333,0.247,4.474,0.762c1.148,0.505,2.051,1.162,2.704,1.979c0.65,0.81,1.099,1.751,1.339,2.808
		C468.507,310.591,468.626,311.666,468.626,312.761z M464.554,312.8c0-1.276-0.127-2.312-0.39-3.094
		c-0.26-0.791-0.612-1.408-1.066-1.866c-0.452-0.447-0.987-0.75-1.6-0.904c-0.619-0.142-1.28-0.218-1.995-0.218h-3.245v12.458h3.208
		c0.713,0,1.38-0.086,2.008-0.276c0.628-0.172,1.171-0.494,1.623-0.97c0.454-0.485,0.806-1.132,1.066-1.95
		C464.427,315.168,464.554,314.113,464.554,312.8z"/>
	<path fill="#565961" d="M489.058,312.761c0,1.189-0.143,2.322-0.438,3.407c-0.294,1.095-0.779,2.084-1.462,2.942
		c-0.68,0.847-1.574,1.513-2.678,2.026c-1.112,0.504-2.464,0.761-4.061,0.761h-3.724v10.146h-4.069v-28.057h7.555
		c1.838,0,3.332,0.247,4.479,0.762c1.147,0.505,2.042,1.162,2.702,1.979c0.648,0.81,1.101,1.751,1.339,2.808
		C488.943,310.591,489.058,311.666,489.058,312.761z M484.993,312.8c0-1.276-0.132-2.312-0.394-3.094
		c-0.261-0.791-0.608-1.408-1.069-1.866c-0.45-0.447-0.983-0.75-1.598-0.904c-0.614-0.142-1.28-0.218-1.991-0.218h-3.245v12.458
		h3.202c0.71,0,1.381-0.086,2.012-0.276c0.632-0.172,1.169-0.494,1.62-0.97c0.461-0.485,0.808-1.132,1.069-1.95
		C484.861,315.168,484.993,314.113,484.993,312.8z"/>
	<path fill="#565961" d="M493.059,332.043v-28.057h4.069v24.964h10.465v3.093H493.059z"/>
	<path fill="#565961" d="M511.254,332.043v-28.057h4.072v28.057H511.254z"/>
	<path fill="#565961" d="M521.475,332.043v-28.057h14.887v3.084h-10.82v8.964h7.9v3.103h-7.9v9.812h11.025v3.093H521.475z"/>
	<path fill="#565961" d="M560.711,318.015c0,3.274-0.42,5.891-1.246,7.784c-0.826,1.922-1.902,3.36-3.217,4.312
		c-1.09,0.779-2.275,1.285-3.541,1.551c-1.27,0.247-2.611,0.381-4.029,0.381h-7.65v-28.057h7.65c1.418,0,2.76,0.134,4.029,0.391
		c1.266,0.247,2.451,0.763,3.541,1.523c1.314,0.971,2.391,2.409,3.217,4.321C560.291,312.114,560.711,314.732,560.711,318.015z
		 M556.293,317.882c0-1.505-0.08-2.799-0.244-3.923c-0.162-1.123-0.381-2.084-0.66-2.892c-0.283-0.781-0.611-1.447-0.986-1.989
		c-0.377-0.534-0.785-0.952-1.242-1.285c-0.723-0.523-1.502-0.839-2.35-0.933c-0.844-0.106-1.686-0.143-2.541-0.143h-3.17v22.232
		h4.447c0.779,0,1.533-0.106,2.271-0.326c0.732-0.228,1.406-0.656,2.025-1.274c0.691-0.694,1.277-1.79,1.742-3.245
		C556.053,322.621,556.293,320.526,556.293,317.882z"/>
	<path fill="#565961" d="M593.225,323.524c0,1.437-0.248,2.693-0.746,3.769c-0.494,1.067-1.18,1.951-2.059,2.638
		c-0.887,0.702-1.926,1.227-3.133,1.586c-1.199,0.354-2.506,0.525-3.92,0.525c-0.779,0-1.529-0.03-2.25-0.087
		c-0.723-0.047-1.383-0.122-1.982-0.2c-0.604-0.075-1.125-0.161-1.564-0.238c-0.439-0.084-0.748-0.141-0.898-0.161v-3.121
		c0.209,0.028,0.547,0.076,1.012,0.161c0.475,0.086,1.006,0.164,1.604,0.249c0.605,0.076,1.229,0.143,1.883,0.19
		c0.654,0.057,1.264,0.076,1.826,0.076c0.826,0,1.598-0.086,2.293-0.256c0.711-0.182,1.332-0.458,1.865-0.838
		c0.533-0.38,0.957-0.867,1.266-1.437c0.303-0.562,0.455-1.248,0.455-2.018c0-0.8-0.127-1.475-0.377-2.007
		c-0.25-0.545-0.615-0.98-1.08-1.352c-0.465-0.371-1.039-0.687-1.701-0.961c-0.67-0.256-1.4-0.542-2.199-0.829
		c-0.777-0.256-1.584-0.542-2.422-0.875c-0.842-0.323-1.604-0.762-2.281-1.313c-0.682-0.543-1.244-1.248-1.678-2.075
		c-0.443-0.837-0.662-1.922-0.662-3.226c0-1.133,0.188-2.17,0.559-3.122c0.377-0.952,0.943-1.779,1.695-2.464
		c0.75-0.685,1.691-1.2,2.824-1.58c1.143-0.38,2.471-0.572,3.992-0.572c1.523,0,2.789,0.078,3.793,0.219
		c1,0.144,1.707,0.268,2.143,0.344v3.034c-0.352-0.018-1.004-0.094-1.967-0.209c-0.959-0.123-1.965-0.191-3.006-0.191
		c-0.615,0-1.258,0.06-1.918,0.135c-0.67,0.094-1.299,0.275-1.885,0.582c-0.59,0.284-1.078,0.694-1.443,1.235
		c-0.373,0.535-0.564,1.247-0.564,2.143c0,0.799,0.191,1.456,0.564,1.979c0.365,0.513,0.846,0.951,1.416,1.304
		c0.574,0.354,1.209,0.637,1.904,0.855c0.693,0.229,1.354,0.449,1.996,0.649c0.828,0.285,1.645,0.627,2.441,0.979
		c0.801,0.362,1.518,0.839,2.139,1.389c0.631,0.571,1.125,1.257,1.502,2.065C593.033,321.345,593.225,322.345,593.225,323.524z"/>
	<path fill="#565961" d="M612.396,331.824c-0.969,0.142-2.006,0.219-3.129,0.219c-1.818,0-3.473-0.296-4.969-0.885
		c-1.494-0.581-2.779-1.447-3.848-2.589c-1.074-1.18-1.91-2.646-2.51-4.388c-0.609-1.76-0.912-3.845-0.912-6.204
		c0-2.333,0.299-4.358,0.883-6.111c0.592-1.732,1.43-3.188,2.516-4.367c1.082-1.153,2.391-2.028,3.908-2.619
		c1.527-0.589,3.211-0.895,5.055-0.895c1.334,0,2.504,0.078,3.508,0.228c0.998,0.163,1.656,0.278,1.979,0.325v2.97
		c-0.371-0.077-0.963-0.172-1.762-0.266c-0.797-0.115-1.631-0.172-2.484-0.172c-1.688,0-3.105,0.247-4.268,0.732
		c-1.16,0.496-2.107,1.21-2.824,2.131c-0.721,0.915-1.248,2.055-1.586,3.409c-0.334,1.351-0.494,2.893-0.494,4.654
		c0,3.748,0.732,6.518,2.201,8.287c1.469,1.781,3.711,2.667,6.73,2.667c0.85,0,1.662-0.048,2.428-0.145
		c0.756-0.104,1.445-0.218,2.059-0.361v2.932C614.188,331.538,613.355,331.691,612.396,331.824z"/>
	<path fill="#565961" d="M618.807,332.043v-28.057h4.074v28.057H618.807z"/>
	<path fill="#565961" d="M629.023,332.043v-28.057h14.893v3.084h-10.818v8.964h7.891v3.103h-7.891v9.812h11.021v3.093H629.023z"/>
	<path fill="#565961" d="M663.447,332.043l-10.773-23.241h-0.572l0.201,23.241h-4.273v-28.057h6.252l10.635,23.117h0.617
		l-0.203-23.117h4.07v28.057H663.447z"/>
	<path fill="#565961" d="M689.652,331.824c-0.963,0.142-2.004,0.219-3.127,0.219c-1.812,0-3.471-0.296-4.971-0.885
		c-1.492-0.581-2.775-1.447-3.848-2.589c-1.07-1.18-1.912-2.646-2.512-4.388c-0.605-1.76-0.904-3.845-0.904-6.204
		c0-2.333,0.295-4.358,0.885-6.111c0.59-1.732,1.426-3.188,2.514-4.367c1.082-1.153,2.389-2.028,3.91-2.619
		c1.518-0.589,3.203-0.895,5.051-0.895c1.33,0,2.5,0.078,3.5,0.228c1.006,0.163,1.67,0.278,1.982,0.325v2.97
		c-0.367-0.077-0.955-0.172-1.758-0.266c-0.799-0.115-1.629-0.172-2.484-0.172c-1.682,0-3.105,0.247-4.268,0.732
		c-1.162,0.496-2.104,1.21-2.824,2.131c-0.721,0.915-1.254,2.055-1.586,3.409c-0.334,1.351-0.502,2.893-0.502,4.654
		c0,3.748,0.738,6.518,2.203,8.287c1.471,1.781,3.715,2.667,6.734,2.667c0.855,0,1.664-0.048,2.422-0.145
		c0.76-0.104,1.453-0.218,2.062-0.361v2.932C691.443,331.538,690.617,331.691,689.652,331.824z"/>
	<path fill="#565961" d="M696.064,332.043v-28.057h14.895v3.084h-10.82v8.964h7.896v3.103h-7.896v9.812h11.016v3.093H696.064z"/>
	<path fill="#565961" d="M731.469,323.524c0,1.437-0.252,2.693-0.736,3.769c-0.502,1.067-1.186,1.951-2.066,2.638
		c-0.879,0.702-1.928,1.227-3.133,1.586c-1.203,0.354-2.506,0.525-3.924,0.525c-0.775,0-1.521-0.03-2.246-0.087
		c-0.723-0.047-1.379-0.122-1.979-0.2c-0.605-0.075-1.125-0.161-1.566-0.238c-0.443-0.084-0.742-0.141-0.904-0.161v-3.121
		c0.215,0.028,0.559,0.076,1.023,0.161c0.461,0.086,1.004,0.164,1.598,0.249c0.6,0.076,1.234,0.143,1.885,0.19
		c0.658,0.057,1.266,0.076,1.818,0.076c0.83,0,1.598-0.086,2.303-0.256c0.709-0.182,1.332-0.458,1.863-0.838
		c0.535-0.38,0.959-0.867,1.262-1.437c0.307-0.562,0.465-1.248,0.465-2.018c0-0.8-0.135-1.475-0.383-2.007
		c-0.256-0.545-0.613-0.98-1.084-1.352c-0.461-0.371-1.033-0.687-1.699-0.961c-0.668-0.256-1.4-0.542-2.199-0.829
		c-0.775-0.256-1.584-0.542-2.422-0.875c-0.844-0.323-1.598-0.762-2.283-1.313c-0.68-0.543-1.238-1.248-1.682-2.075
		c-0.441-0.837-0.66-1.922-0.66-3.226c0-1.133,0.189-2.17,0.562-3.122c0.383-0.952,0.941-1.779,1.693-2.464
		c0.752-0.685,1.695-1.2,2.83-1.58c1.137-0.38,2.471-0.572,3.992-0.572c1.523,0,2.779,0.078,3.789,0.219
		c0.998,0.144,1.713,0.268,2.141,0.344v3.034c-0.35-0.018-1.004-0.094-1.971-0.209c-0.961-0.123-1.961-0.191-3-0.191
		c-0.615,0-1.258,0.06-1.924,0.135c-0.666,0.094-1.289,0.275-1.885,0.582c-0.584,0.284-1.064,0.694-1.441,1.235
		c-0.371,0.535-0.557,1.247-0.557,2.143c0,0.799,0.186,1.456,0.557,1.979c0.377,0.513,0.848,0.951,1.428,1.304
		c0.57,0.354,1.199,0.637,1.893,0.855c0.695,0.229,1.363,0.449,2,0.649c0.828,0.285,1.641,0.627,2.445,0.979
		c0.795,0.362,1.514,0.839,2.131,1.389c0.635,0.571,1.133,1.257,1.51,2.065C731.277,321.345,731.469,322.345,731.469,323.524z"/>
</g>
</svg>
